module case_go

go 1.16

require (
	github.com/dgrijalva/jwt-go v3.2.0+incompatible // indirect
	github.com/go-sql-driver/mysql v1.6.0 // indirect
	github.com/gorilla/mux v1.8.0 // indirect
	github.com/jinzhu/gorm v1.9.16 // indirect
	golang.org/x/crypto v0.0.0-20210421170649-83a5a9bb288b // indirect
)
